module bevsxyz

go 1.15

require (
	github.com/wowchemy/wowchemy-hugo-themes/modules/wowchemy-plugin-netlify v1.0.0
	github.com/wowchemy/wowchemy-hugo-themes/modules/wowchemy-plugin-netlify-cms v1.0.0
	github.com/wowchemy/wowchemy-hugo-themes/modules/wowchemy-plugin-reveal v1.0.0 // indirect
	github.com/wowchemy/wowchemy-hugo-themes/modules/wowchemy/v5 v5.7.0
)
